医学与生物统计学 - 15 非参数检验
…
15.4.2.2 曼-惠特尼 U 统计量

\[
曼-惠特尼U统计量= 威尔科克森W(较小秩和)-\frac{n_{T_{min}}(n_{T_{min}}+1)}{2}
\]

15.4.2.3 Z 统计量 coin::wilcox_test()

Show the code
library(coin)
df <- read_excel("data/coin：：wilcox_test .xlsx") %>% mutate(group=as.factor(group))
df
#> # A tibble: 240 × 2
#>    HADS得分 group
#>       <dbl> <fct>
#>  1       14 1    
#>  2       14 1    
#>  3        7 1    
#>  4       22 1    
#>  5        7 1    
#>  6       12 1    
#>  7       15 1    
#>  8       17 1    
#>  9        8 1    
#> 10       14 1    
#> # ℹ 230 more rows
…
