21 随机对照试验 – 医学与生物统计学
…
set.seed(20241011)
raw_data %>%
  mutate(assign = sample(1:4, size = 100, replace = TRUE)) -> raw_data

table(raw_data$assign)
#> 
#>  1  2  3  4 
#> 24 24 27 25

raw_data
#> # A tibble: 100 × 2
#>       id assign
#>    <int>  <int>
#>  1     1      3
#>  2     2      2
#>  3     3      2
#>  4     4      4
#>  5     5      1
#>  6     6      1
#>  7     7      2
#>  8     8      3
#>  9     9      2
#> 10    10      1
#> # ℹ 90 more rows
…
要避免一人揭盲人人揭盲的情况，双盲的具体做法是:

研究设计者在随机化分组时，对每个研究对象分配一个设盲编码。

Table 21.2

Show the code
raw_data %>% 
    mutate(
        blind_id = 1001:1100,
        drug_id = 1001:1100,
    ) ->raw_data
raw_data 
#> # A tibble: 100 × 4
#>       id assign blind_id drug_id
#>    <int>  <int>    <int>   <int>
#>  1     1      3     1001    1001
#>  2     2      2     1002    1002
#>  3     3      2     1003    1003
#>  4     4      4     1004    1004
#>  5     5      1     1005    1005
#>  6     6      1     1006    1006
#>  7     7      2     1007    1007
#>  8     8      3     1008    1008
#>  9     9      2     1009    1009
#> 10    10      1     1010    1010
#> # ℹ 90 more rows

# 给研究实施者提供
raw_data %>% select(contains("id"))
#> # A tibble: 100 × 3
#>       id blind_id drug_id
#>    <int>    <int>   <int>
#>  1     1     1001    1001
#>  2     2     1002    1002
#>  3     3     1003    1003
#>  4     4     1004    1004
#>  5     5     1005    1005
#>  6     6     1006    1006
#>  7     7     1007    1007
#>  8     8     1008    1008
#>  9     9     1009    1009
#> 10    10     1010    1010
#> # ℹ 90 more rows
…
