21 随机对照试验 – 医学与生物统计学应用
…
table(raw_data$简单assigned_group)
#> 
#>  1  2  3  4 
#> 24 24 27 25
table(raw_data$区组BRassigned_group)
#> 
#>  1  2  3  4 
#> 25 25 25 25
raw_data
#> # A tibble: 100 × 3
#>    include_order 简单assigned_group 区组BRassigned_group
#>            <int>              <int>                <int>
#>  1             1                  3                    3
#>  2             2                  2                    1
#>  3             3                  2                    2
#>  4             4                  4                    4
#>  5             5                  1                    4
#>  6             6                  1                    1
#>  7             7                  2                    2
#>  8             8                  3                    1
#>  9             9                  2                    3
#> 10            10                  1                    1
#> # ℹ 90 more rows
…
# 检查区组分布
blockrand_data |> group_by(block.id) |> 
    summarise(
    groups = paste(sort(unique(treatment)), collapse = ","),
    n = n()
  )
#> # A tibble: 25 × 3
#>    block.id groups      n
#>    <fct>    <chr>   <int>
#>  1 Block01  A,B,C,D     4
#>  2 Block02  A,B,C,D     4
#>  3 Block03  A,B,C,D     4
#>  4 Block04  A,B,C,D     4
#>  5 Block05  A,B,C,D     4
#>  6 Block06  A,B,C,D     4
#>  7 Block07  A,B,C,D     4
#>  8 Block08  A,B,C,D     4
#>  9 Block09  A,B,C,D     4
#> 10 Block10  A,B,C,D     4
#> # ℹ 15 more rows
…
要避免一人揭盲人人揭盲的情况，双盲的具体做法是:

研究设计者在随机化分组时，对每个研究对象分配一个设盲编码。

Table 21.2

Show the code
raw_data |> 
    mutate(
        blind_id = 1001:1100,
        drug_id = 1001:1100,
    ) ->raw_data
raw_data 
#> # A tibble: 100 × 5
#>    include_order 简单assigned_group 区组BRassigned_group blind_id drug_id
#>            <int>              <int>                <int>    <int>   <int>
#>  1             1                  3                    3     1001    1001
#>  2             2                  2                    1     1002    1002
#>  3             3                  2                    2     1003    1003
#>  4             4                  4                    4     1004    1004
#>  5             5                  1                    4     1005    1005
#>  6             6                  1                    1     1006    1006
#>  7             7                  2                    2     1007    1007
#>  8             8                  3                    1     1008    1008
#>  9             9                  2                    3     1009    1009
#> 10            10                  1                    1     1010    1010
#> # ℹ 90 more rows

# 给研究实施者提供
raw_data |> select(contains("id"))
#> # A tibble: 100 × 2
#>    blind_id drug_id
#>       <int>   <int>
#>  1     1001    1001
#>  2     1002    1002
#>  3     1003    1003
#>  4     1004    1004
#>  5     1005    1005
#>  6     1006    1006
#>  7     1007    1007
#>  8     1008    1008
#>  9     1009    1009
#> 10     1010    1010
#> # ℹ 90 more rows
…
